{
  "project_info": {
    "project_number": "416038897906",
    "firebase_url": "https://astrosample-704bc.firebaseio.com",
    "project_id": "astrosample-704bc",
    "storage_bucket": "astrosample-704bc.appspot.com"
  },
  "client": [
    {
      "client_info": {
        "mobilesdk_app_id": "1:416038897906:android:260e4ee5a93d01e6",
        "android_client_info": {
          "package_name": "sample.astro.com"
        }
      },
      "oauth_client": [
        {
          "client_id": "416038897906-4ncl4mm6dfbus0rspf7verj3a15ajtto.apps.googleusercontent.com",
          "client_type": 1,
          "android_info": {
            "package_name": "sample.astro.com",
            "certificate_hash": "81095f1ce553f94f92afc50fd09a8bafa060c17b"
          }
        },
        {
          "client_id": "416038897906-cl49ae6scnhmd960chd37hd0no1a3noi.apps.googleusercontent.com",
          "client_type": 3
        }
      ],
      "api_key": [
        {
          "current_key": "AIzaSyAJqDcrkmcHgWteO3n2SsWJMHYAbmbCvfU"
        }
      ],
      "services": {
        "analytics_service": {
          "status": 1
        },
        "appinvite_service": {
          "status": 2,
          "other_platform_oauth_client": [
            {
              "client_id": "416038897906-cl49ae6scnhmd960chd37hd0no1a3noi.apps.googleusercontent.com",
              "client_type": 3
            }
          ]
        },
        "ads_service": {
          "status": 2
        }
      }
    }
  ],
  "configuration_version": "1"
}